<?xml version='1.0'?>
<gpx version='1.1' creator='Xcode'>
  <wpt lat='39.797600' lon='-75.452100'>
    <name>Claymont</name>
  </wpt>
  <wpt lat='39.821500' lon='-75.419700'>
    <name>Marcus Hook</name>
  </wpt>
  <wpt lat='39.833700' lon='-75.392900'>
    <name>Highland Avenue</name>
  </wpt>
  <wpt lat='39.849320' lon='-75.359880'>
    <name>Chester Transportation Center</name>
  </wpt>
  <wpt lat='39.857300' lon='-75.341600'>
    <name>Eddystone</name>
  </wpt>
  <wpt lat='39.871900' lon='-75.331100'>
    <name>Crum Lynne</name>
  </wpt>
  <wpt lat='39.880523' lon='-75.322105'>
    <name>Ridley Park</name>
  </wpt>
  <wpt lat='39.888114' lon='-75.309434'>
    <name>Prospect Park</name>
  </wpt>
  <wpt lat='39.891360' lon='-75.302221'>
    <name>Norwood</name>
  </wpt>
  <wpt lat='39.896362' lon='-75.289854'>
    <name>Glenolden</name>
  </wpt>
  <wpt lat='39.900667' lon='-75.279543'>
    <name>Folcroft</name>
  </wpt>
  <wpt lat='39.904255' lon='-75.270971'>
    <name>Sharon Hill</name>
  </wpt>
  <wpt lat='39.908083' lon='-75.265008'>
    <name>Curtis Park</name>
  </wpt>
  <wpt lat='39.912962' lon='-75.254588'>
    <name>Darby</name>
  </wpt>
  <wpt lat='39.947840' lon='-75.190340'>
    <name>University City</name>
  </wpt>
  <wpt lat='39.956924' lon='-75.182576'>
    <name>30th Street Station</name>
  </wpt>
</gpx>
